\relax 
\providecommand\hyper@newdestlabel[2]{}
\@writefile{toc}{\contentsline {chapter}{\numberline {4}Arhitektura i dizajn sustava}{26}{chapter.4}\protected@file@percent }
\@writefile{lof}{\addvspace {10\p@ }}
\@writefile{lot}{\addvspace {10\p@ }}
\@writefile{lof}{\contentsline {figure}{\numberline {4.1}{\ignorespaces Arhitektura sustava}}{26}{figure.4.1}\protected@file@percent }
\@writefile{toc}{\contentsline {section}{\numberline {4.1}Baza podataka}{27}{section.4.1}\protected@file@percent }
\@writefile{toc}{\contentsline {subsection}{\numberline {4.1.1}Opis tablica}{28}{subsection.4.1.1}\protected@file@percent }
\@writefile{toc}{\contentsline {subsection}{\numberline {4.1.2}Dijagram baze podataka}{31}{subsection.4.1.2}\protected@file@percent }
\@writefile{lof}{\contentsline {figure}{\numberline {4.2}{\ignorespaces Baza podataka}}{31}{figure.4.2}\protected@file@percent }
\@writefile{toc}{\contentsline {section}{\numberline {4.2}Dijagram razreda}{32}{section.4.2}\protected@file@percent }
\@writefile{lof}{\contentsline {figure}{\numberline {4.3}{\ignorespaces Controller}}{32}{figure.4.3}\protected@file@percent }
\@writefile{lof}{\contentsline {figure}{\numberline {4.4}{\ignorespaces Dijagram klasa - DTO}}{33}{figure.4.4}\protected@file@percent }
\@writefile{lof}{\contentsline {figure}{\numberline {4.5}{\ignorespaces Dijagram klasa - DTO}}{33}{figure.4.5}\protected@file@percent }
\@writefile{toc}{\contentsline {subsection}{\numberline {4.2.1}Dijagram razreda nakon završene aplikacije}{34}{subsection.4.2.1}\protected@file@percent }
\@writefile{lof}{\contentsline {figure}{\numberline {4.6}{\ignorespaces Controlleri}}{34}{figure.4.6}\protected@file@percent }
\@writefile{lof}{\contentsline {figure}{\numberline {4.7}{\ignorespaces Admin controller}}{35}{figure.4.7}\protected@file@percent }
\@writefile{lof}{\contentsline {figure}{\numberline {4.8}{\ignorespaces Client controller}}{36}{figure.4.8}\protected@file@percent }
\@writefile{lof}{\contentsline {figure}{\numberline {4.9}{\ignorespaces Manager controller}}{37}{figure.4.9}\protected@file@percent }
\@writefile{lof}{\contentsline {figure}{\numberline {4.10}{\ignorespaces Parking controller}}{38}{figure.4.10}\protected@file@percent }
\@writefile{lof}{\contentsline {figure}{\numberline {4.11}{\ignorespaces Root controller}}{38}{figure.4.11}\protected@file@percent }
\@writefile{lof}{\contentsline {figure}{\numberline {4.12}{\ignorespaces Repozitoriji}}{39}{figure.4.12}\protected@file@percent }
\@writefile{lof}{\contentsline {figure}{\numberline {4.13}{\ignorespaces Modeli}}{39}{figure.4.13}\protected@file@percent }
\@writefile{lof}{\contentsline {figure}{\numberline {4.14}{\ignorespaces DTO-ovi}}{40}{figure.4.14}\protected@file@percent }
\@writefile{lof}{\contentsline {figure}{\numberline {4.15}{\ignorespaces Servisi}}{41}{figure.4.15}\protected@file@percent }
\@writefile{toc}{\contentsline {section}{\numberline {4.3}Dijagram stanja}{41}{section.4.3}\protected@file@percent }
\@writefile{lof}{\contentsline {figure}{\numberline {4.16}{\ignorespaces Dijagram stanja}}{42}{figure.4.16}\protected@file@percent }
\@writefile{toc}{\contentsline {section}{\numberline {4.4}Dijagram aktivnosti}{42}{section.4.4}\protected@file@percent }
\@writefile{lof}{\contentsline {figure}{\numberline {4.17}{\ignorespaces Dijagram aktivnosti}}{43}{figure.4.17}\protected@file@percent }
\@writefile{toc}{\contentsline {section}{\numberline {4.5}Dijagram komponenti}{44}{section.4.5}\protected@file@percent }
\@writefile{lof}{\contentsline {figure}{\numberline {4.18}{\ignorespaces Dijagram komponenti}}{44}{figure.4.18}\protected@file@percent }
\@setckpt{Arhitektura}{
\setcounter{page}{45}
\setcounter{equation}{0}
\setcounter{enumi}{2}
\setcounter{enumii}{4}
\setcounter{enumiii}{2}
\setcounter{enumiv}{0}
\setcounter{footnote}{0}
\setcounter{mpfootnote}{0}
\setcounter{part}{0}
\setcounter{chapter}{4}
\setcounter{section}{5}
\setcounter{subsection}{0}
\setcounter{subsubsection}{0}
\setcounter{paragraph}{0}
\setcounter{subparagraph}{0}
\setcounter{figure}{18}
\setcounter{table}{0}
\setcounter{parentequation}{0}
\setcounter{Item}{86}
\setcounter{Hfootnote}{0}
\setcounter{bookmark@seq@number}{22}
\setcounter{float@type}{4}
\setcounter{section@level}{0}
}
