\relax 
\providecommand\hyper@newdestlabel[2]{}
\@writefile{toc}{\contentsline {chapter}{Dodatak: Prikaz aktivnosti grupe}{68}{chapter*.6}\protected@file@percent }
\@writefile{lot}{\contentsline {table}{\numberline {0}{}}{70}{Item.100}\protected@file@percent }
\@writefile{lof}{\contentsline {figure}{\numberline {6.1}{\ignorespaces Dijagram pregleda promjena}}{72}{figure.6.1}\protected@file@percent }
\@setckpt{Dodatak}{
\setcounter{page}{73}
\setcounter{equation}{0}
\setcounter{enumi}{8}
\setcounter{enumii}{4}
\setcounter{enumiii}{2}
\setcounter{enumiv}{0}
\setcounter{footnote}{0}
\setcounter{mpfootnote}{0}
\setcounter{part}{0}
\setcounter{chapter}{6}
\setcounter{section}{0}
\setcounter{subsection}{0}
\setcounter{subsubsection}{0}
\setcounter{paragraph}{0}
\setcounter{subparagraph}{0}
\setcounter{figure}{1}
\setcounter{table}{0}
\setcounter{parentequation}{0}
\setcounter{Item}{100}
\setcounter{Hfootnote}{0}
\setcounter{bookmark@seq@number}{36}
\setcounter{float@type}{4}
\setcounter{section@level}{0}
}
