\relax 
\providecommand\hyper@newdestlabel[2]{}
\@writefile{toc}{\contentsline {chapter}{\numberline {5}Implementacija i korisničko sučelje}{45}{chapter.5}\protected@file@percent }
\@writefile{lof}{\addvspace {10\p@ }}
\@writefile{lot}{\addvspace {10\p@ }}
\@writefile{toc}{\contentsline {section}{\numberline {5.1}Korištene tehnologije i alati}{45}{section.5.1}\protected@file@percent }
\@writefile{toc}{\contentsline {section}{\numberline {5.2}Ispitivanje programskog rješenja}{47}{section.5.2}\protected@file@percent }
\@writefile{toc}{\contentsline {subsection}{\numberline {5.2.1}Ispitivanje komponenti}{47}{subsection.5.2.1}\protected@file@percent }
\@writefile{lof}{\contentsline {figure}{\numberline {5.1}{\ignorespaces Ispitni slučaj - dohvaćanje tek stvorenih korisnika}}{47}{figure.5.1}\protected@file@percent }
\@writefile{lof}{\contentsline {figure}{\numberline {5.2}{\ignorespaces Ispitni slučaj - promoviranje korisnika u voditelja parkinga}}{48}{figure.5.2}\protected@file@percent }
\@writefile{lof}{\contentsline {figure}{\numberline {5.3}{\ignorespaces Ispitni slučaj - bacanje iznimke}}{48}{figure.5.3}\protected@file@percent }
\@writefile{lof}{\contentsline {figure}{\numberline {5.4}{\ignorespaces Ispitni slučaj - dodavanje novaca na račun}}{48}{figure.5.4}\protected@file@percent }
\@writefile{lof}{\contentsline {figure}{\numberline {5.5}{\ignorespaces Ispitni slučaj - voditelj parkinga radi rezervaiju umjesto klijenta}}{49}{figure.5.5}\protected@file@percent }
\@writefile{lof}{\contentsline {figure}{\numberline {5.6}{\ignorespaces Ispitni slučaj - voditelj parkinga oslobađa mjesto koje nije zauzeto}}{50}{figure.5.6}\protected@file@percent }
\@writefile{lof}{\contentsline {figure}{\numberline {5.7}{\ignorespaces Rezultati testova}}{50}{figure.5.7}\protected@file@percent }
\@writefile{toc}{\contentsline {subsection}{\numberline {5.2.2}Ispitivanje sustava}{51}{subsection.5.2.2}\protected@file@percent }
\@writefile{lof}{\contentsline {figure}{\numberline {5.8}{\ignorespaces Before each metoda}}{51}{figure.5.8}\protected@file@percent }
\@writefile{lof}{\contentsline {figure}{\numberline {5.9}{\ignorespaces Ispitni slučaj - prijava registriranog korisnika u sustav}}{52}{figure.5.9}\protected@file@percent }
\@writefile{lof}{\contentsline {figure}{\numberline {5.10}{\ignorespaces Ispitni slučaj - pronalazak najbližeg parkirnog mjesta}}{53}{figure.5.10}\protected@file@percent }
\@writefile{lof}{\contentsline {figure}{\numberline {5.11}{\ignorespaces Ispitni slučaj - voditelj parkinga zauzima mjesto za bicikl}}{54}{figure.5.11}\protected@file@percent }
\@writefile{lof}{\contentsline {figure}{\numberline {5.12}{\ignorespaces Ispitni slučaj - klijent dodaje novac na račun}}{55}{figure.5.12}\protected@file@percent }
\@writefile{toc}{\contentsline {section}{\numberline {5.3}Dijagram razmještaja}{56}{section.5.3}\protected@file@percent }
\@writefile{lof}{\contentsline {figure}{\numberline {5.13}{\ignorespaces Dijagram obrazaca uporabe - funkcionalnosti korisnika}}{56}{figure.5.13}\protected@file@percent }
\@writefile{toc}{\contentsline {section}{\numberline {5.4}Upute za puštanje u pogon}{57}{section.5.4}\protected@file@percent }
\@writefile{toc}{\contentsline {subsection}{\numberline {5.4.1}Dohvaćanje koda i izmjene u njemu}{57}{subsection.5.4.1}\protected@file@percent }
\@writefile{lof}{\contentsline {figure}{\numberline {5.14}{\ignorespaces Varijabla domain u App.js nakon promjene}}{57}{figure.5.14}\protected@file@percent }
\@writefile{lof}{\contentsline {figure}{\numberline {5.15}{\ignorespaces ParkshareApplication nakon micanja komentara}}{58}{figure.5.15}\protected@file@percent }
\@writefile{lof}{\contentsline {figure}{\numberline {5.16}{\ignorespaces Padajući izbornik koji trebate otvoriti}}{58}{figure.5.16}\protected@file@percent }
\@writefile{lof}{\contentsline {figure}{\numberline {5.17}{\ignorespaces Konfiguracija ParkshareApplication-a nakon dodavanja u labelu}}{59}{figure.5.17}\protected@file@percent }
\@writefile{toc}{\contentsline {subsection}{\numberline {5.4.2}Pokretanje aplikacije}{60}{subsection.5.4.2}\protected@file@percent }
\@writefile{lof}{\contentsline {figure}{\numberline {5.18}{\ignorespaces Ikona save koju se treba kliknuti}}{60}{figure.5.18}\protected@file@percent }
\@writefile{lof}{\contentsline {figure}{\numberline {5.19}{\ignorespaces Aplikacija nakon pokretanja na localhost-u}}{60}{figure.5.19}\protected@file@percent }
\@writefile{toc}{\contentsline {subsection}{\numberline {5.4.3}Pokretanje aplikacije na javnom poslužitelju}{61}{subsection.5.4.3}\protected@file@percent }
\@writefile{lof}{\contentsline {figure}{\numberline {5.20}{\ignorespaces Početna stranica Heroku-a}}{61}{figure.5.20}\protected@file@percent }
\@writefile{lof}{\contentsline {figure}{\numberline {5.21}{\ignorespaces Gumb Open app za backend}}{61}{figure.5.21}\protected@file@percent }
\@writefile{lof}{\contentsline {figure}{\numberline {5.22}{\ignorespaces Aplikacija nakon pokretanja javnom poslužitelju}}{62}{figure.5.22}\protected@file@percent }
\@setckpt{Implementacija}{
\setcounter{page}{63}
\setcounter{equation}{0}
\setcounter{enumi}{2}
\setcounter{enumii}{4}
\setcounter{enumiii}{2}
\setcounter{enumiv}{0}
\setcounter{footnote}{0}
\setcounter{mpfootnote}{0}
\setcounter{part}{0}
\setcounter{chapter}{5}
\setcounter{section}{4}
\setcounter{subsection}{3}
\setcounter{subsubsection}{0}
\setcounter{paragraph}{0}
\setcounter{subparagraph}{0}
\setcounter{figure}{22}
\setcounter{table}{0}
\setcounter{parentequation}{0}
\setcounter{Item}{86}
\setcounter{Hfootnote}{0}
\setcounter{bookmark@seq@number}{32}
\setcounter{float@type}{4}
\setcounter{section@level}{0}
}
