\relax 
\providecommand\hyper@newdestlabel[2]{}
\@writefile{toc}{\contentsline {chapter}{Popis literature}{65}{chapter*.4}\protected@file@percent }
\@setckpt{Literatura}{
\setcounter{page}{66}
\setcounter{equation}{0}
\setcounter{enumi}{6}
\setcounter{enumii}{4}
\setcounter{enumiii}{2}
\setcounter{enumiv}{0}
\setcounter{footnote}{0}
\setcounter{mpfootnote}{0}
\setcounter{part}{0}
\setcounter{chapter}{6}
\setcounter{section}{0}
\setcounter{subsection}{0}
\setcounter{subsubsection}{0}
\setcounter{paragraph}{0}
\setcounter{subparagraph}{0}
\setcounter{figure}{0}
\setcounter{table}{0}
\setcounter{parentequation}{0}
\setcounter{Item}{92}
\setcounter{Hfootnote}{0}
\setcounter{bookmark@seq@number}{34}
\setcounter{float@type}{4}
\setcounter{section@level}{0}
}
