\relax 
\providecommand\hyper@newdestlabel[2]{}
\@writefile{toc}{\contentsline {chapter}{\numberline {3}Specifikacija programske potpore}{12}{chapter.3}\protected@file@percent }
\@writefile{lof}{\addvspace {10\p@ }}
\@writefile{lot}{\addvspace {10\p@ }}
\@writefile{toc}{\contentsline {section}{\numberline {3.1}Funkcionalni zahtjevi}{12}{section.3.1}\protected@file@percent }
\@writefile{toc}{\contentsline {subsection}{\numberline {3.1.1}Obrasci uporabe}{14}{subsection.3.1.1}\protected@file@percent }
\@writefile{toc}{\contentsline {subsubsection}{Opis obrazaca uporabe}{14}{subsubsection*.2}\protected@file@percent }
\@writefile{toc}{\contentsline {subsubsection}{Dijagrami obrazaca uporabe}{19}{subsubsection*.3}\protected@file@percent }
\@writefile{lof}{\contentsline {figure}{\numberline {3.1}{\ignorespaces Dijagram obrazaca uporabe - funkcionalnosti korisnika}}{19}{figure.3.1}\protected@file@percent }
\@writefile{lof}{\contentsline {figure}{\numberline {3.2}{\ignorespaces Dijagram obrazaca uporabe - funkcionalnosti admina}}{19}{figure.3.2}\protected@file@percent }
\@writefile{lof}{\contentsline {figure}{\numberline {3.3}{\ignorespaces Dijagram obrazaca uporabe - funkcionalnosti voditelja}}{20}{figure.3.3}\protected@file@percent }
\@writefile{lof}{\contentsline {figure}{\numberline {3.4}{\ignorespaces Dijagram obrazaca uporabe - funkcionalnosti senzora}}{20}{figure.3.4}\protected@file@percent }
\@writefile{lof}{\contentsline {figure}{\numberline {3.5}{\ignorespaces Dijagram obrazaca uporabe - funkcionalnosti klijenta}}{21}{figure.3.5}\protected@file@percent }
\@writefile{toc}{\contentsline {subsection}{\numberline {3.1.2}Sekvencijski dijagrami}{22}{subsection.3.1.2}\protected@file@percent }
\@writefile{lof}{\contentsline {figure}{\numberline {3.6}{\ignorespaces Sekvencijski dijagram registracije korisnika}}{22}{figure.3.6}\protected@file@percent }
\@writefile{lof}{\contentsline {figure}{\numberline {3.7}{\ignorespaces Sekvencijski dijagram pregledavanja karte}}{23}{figure.3.7}\protected@file@percent }
\@writefile{lof}{\contentsline {figure}{\numberline {3.8}{\ignorespaces Sekvencijski dijagram rezerviranja parkirališnog mjesta}}{24}{figure.3.8}\protected@file@percent }
\@writefile{toc}{\contentsline {section}{\numberline {3.2}Ostali zahtjevi}{25}{section.3.2}\protected@file@percent }
\@setckpt{Specifikacija_programske_potpore}{
\setcounter{page}{26}
\setcounter{equation}{0}
\setcounter{enumi}{2}
\setcounter{enumii}{4}
\setcounter{enumiii}{2}
\setcounter{enumiv}{0}
\setcounter{footnote}{0}
\setcounter{mpfootnote}{0}
\setcounter{part}{0}
\setcounter{chapter}{3}
\setcounter{section}{2}
\setcounter{subsection}{0}
\setcounter{subsubsection}{0}
\setcounter{paragraph}{0}
\setcounter{subparagraph}{0}
\setcounter{figure}{8}
\setcounter{table}{0}
\setcounter{parentequation}{0}
\setcounter{Item}{86}
\setcounter{Hfootnote}{0}
\setcounter{bookmark@seq@number}{13}
\setcounter{float@type}{4}
\setcounter{section@level}{0}
}
